873398 23698 525
836629 646879 504
319237 274396 389
516625 774740 509
405587 758207 509
689160 270394 509
564082 200492 470
725786 501522 509
183071 639544 509
836271 821047 419
103089 901856 525
928800 211029 525
409521 624845 470
740721 921460 525
555720 685834 509
759837 284141 509
366607 541058 470
523340 384842 470
16287 293954 443
507262 296247 449
576059 230576 470
903432 910880 476
852494 243062 525
163781 597251 470
464169 542406 470
748053 281052 509
27244 324664 443
830120 387139 509
278144 289938 389
954056 913160 507
309859 160717 443
522217 536284 408
636171 658220 429
357760 819629 509
55831 809848 509
766852 627969 504
207675 740994 509
401761 152561 443
288470 583829 470
277016 150212 443
113391 730700 509
770226 823225 468
765817 906067 525
514630 789378 509
514688 564728 452
638189 128798 509
264494 886192 525
633427 511780 509
877595 438779 525
715388 721751 411
924092 878634 476
668541 536852 509
287598 317302 389
893971 429781 525
732397 886961 525
985392 899081 507
58168 53272 322
438496 1139 449
248506 74326 443
596436 30887 470
750184 424225 509
117500 650651 509
359887 277002 441
12319 441625 449
10594 381762 443
680100 362813 509
956985 905876 507
520824 603847 452
598755 528971 452
178499 672052 509
477176 917106 525
512972 483440 470
794532 522214 509
608510 780759 509
65755 311130 443
459575 60254 449
844951 555948 525
752928 304285 509
436171 729368 509
527023 389378 470
104892 158927 383
158282 104070 383
659689 489917 509
211605 449837 449
467798 103655 449
268649 266721 345
457456 837847 525
652517 943303 525
586864 870742 525
72421 859655 525
815628 918495 525
448703 854706 525
302701 172475 443
986508 308275 525
432914 391177 449
385317 334918 441
821043 505260 509
98795 837232 509
780698 783299 362
86287 448154 449
118406 62573 354
532243 594977 452
366374 883993 525
463923 295914 449
955830 207459 525
979120 527602 525
805019 782897 468
69401 663295 509
653077 197877 509
745173 434373 509
829436 352958 509
203340 434619 449
860626 886940 432
611349 400751 470
647108 204419 509
789485 185560 509
592327 884980 525
399057 986704 525
752640 628522 504
786190 524955 509
404801 370991 436
190378 557879 470
91999 624593 470
903914 841398 445
204577 182452 360
288866 502446 449
718416 683684 504
36013 173792 383
377845 928164 525
324398 809650 509
283394 335303 389
558186 754412 509
305240 987370 525
581453 758679 509
504822 732235 509
368755 975763 525
754206 718929 424
149302 550876 470
726292 240892 509
318045 371514 441
871930 63358 525
475017 884122 525
155917 231164 443
632147 311005 509
486490 124553 449
118126 973775 525
997870 686368 525
202692 445289 449
281848 812525 509
815812 677349 504
49995 977389 525
127167 636798 509
179557 502583 449
773772 589962 509
99827 946573 525
484275 448366 444
672321 65579 509
619890 153634 470
486469 958906 525
604447 455071 470
570996 124229 470
885666 923443 476
439851 119930 449
453817 640017 509
18536 544091 470
583906 581961 434
805733 686168 504
753213 218943 509
756432 970463 525
193672 430633 449
384387 301394 441
258158 958447 525
553504 242794 470
273350 803744 509
510089 402482 449
131489 899854 525
414423 62 449
474278 530334 470
964195 505607 525
539669 910524 525
387323 4585 443
833654 572069 509
846394 424127 525
562655 432155 470
658796 997401 525
857545 783434 525
346890 84512 443
629742 558944 509
564179 297041 470
687008 328799 509
705498 254133 509
279003 16820 443
465627 133393 449
980776 869153 507
353402 883594 525
861966 814253 525
895494 124944 525
639814 82679 509
785269 576109 509
160901 465057 449
524151 334567 470
953071 562602 525
363982 256607 441
822261 71903 509
732303 680834 504
821727 440241 509
727505 395696 509
319933 432053 449
458255 147216 449
830775 366585 509
608358 423489 470
931593 276904 525
201747 50247 383
713650 565350 509
175939 421074 449
936354 205353 525
941620 130164 525
924591 74279 525
989808 83739 525
708561 84499 509
147870 308357 443
106238 42383 351
608988 907208 525
499544 400327 449
786751 372296 509
576558 798596 509
171496 954939 525
408971 176912 443
414263 402087 449
88681 531837 470
216774 379030 443
613516 587581 403
446064 918590 525
958406 534205 525
409014 476183 449
862129 305741 525
514711 521210 439
795770 899840 525
709116 969946 525
609227 195619 470
80561 970517 525
254957 673407 509
770956 466111 509
145160 413971 449
887770 578001 525
890026 178097 525
69919 982152 525
27979 749990 509
435065 19806 449
726144 215112 509
